EpiModel2
…
start <- links %>%
  gather(key = "link", value = "id", PersonID1, PersonID2) %>%
  select(StartTime, id) %>%
  group_by(id) %>%
  filter(StartTime == min(StartTime)) %>%
  unique()
end <- links %>%
  gather(key = "link", value = "id", PersonID1, PersonID2) %>%
  select(EndTime, id) %>%
  group_by(id) %>%
  filter(EndTime == max(EndTime)) %>%
  unique()
start

## # A tibble: 216 x 2
## # Groups:   id [216]
##    StartTime id              
##        <int> <chr>           
##  1       800 Person_309219876
##  2       800 Person_416282820
##  3       800 Person_873627584
##  4       800 Person_015740843
##  5       800 Person_504764566
##  6       800 Person_378599030
##  7       800 Person_250409526
##  8       800 Person_612338436
##  9       800 Person_807936029
## 10       800 Person_520210925
## #  with 206 more rows

end

## # A tibble: 216 x 2
## # Groups:   id [216]
##    EndTime id              
##      <int> <chr>           
##  1    1120 Person_724876995
##  2    1120 Person_244699929
##  3    1150 Person_057843971
##  4    1350 Person_347928682
##  5    1320 Person_079296344
##  6    1320 Person_108799550
##  7    1350 Person_343479687
##  8    1350 Person_950842379
##  9    1550 Person_936649270
## 10    1550 Person_845067122
## #  with 206 more rows

selected_stu <- left_join(start,end,by=("id"))[c(1,3,2)]
selected_stu$numid <- as.numeric(seq(nrow(selected_stu)))
selected_stu

## # A tibble: 216 x 4
## # Groups:   id [216]
##    StartTime EndTime id               numid
##        <int>   <int> <chr>            <dbl>
##  1       800    1720 Person_309219876     1
##  2       800    1750 Person_416282820     2
##  3       800    1750 Person_873627584     3
##  4       800    1750 Person_015740843     4
##  5       800    1650 Person_504764566     5
##  6       800    1730 Person_378599030     6
##  7       800    1720 Person_250409526     7
##  8       800    1750 Person_612338436     8
##  9       800    1720 Person_807936029     9
## 10       800    1750 Person_520210925    10
## #  with 206 more rows
…
selected_stu[,c(1,2,4)]

## # A tibble: 216 x 3
##    StartTime EndTime numid
##        <int>   <int> <dbl>
##  1       800    1720     1
##  2       800    1750     2
##  3       800    1750     3
##  4       800    1750     4
##  5       800    1650     5
##  6       800    1730     6
##  7       800    1720     7
##  8       800    1750     8
##  9       800    1720     9
## 10       800    1750    10
## #  with 206 more rows
…
